%YAML 1.1
%TAG !u! tag:unity3d.com,2011:
--- !u!114 &11400000
MonoBehaviour:
  m_ObjectHideFlags: 0
  m_CorrespondingSourceObject: {fileID: 0}
  m_PrefabInstance: {fileID: 0}
  m_PrefabAsset: {fileID: 0}
  m_GameObject: {fileID: 0}
  m_Enabled: 1
  m_EditorHideFlags: 0
  m_Script: {fileID: 11500000, guid: a5f642b4d361fa041b1aa03ae7961bf5, type: 3}
  m_Name: NorwaySkin
  m_EditorClassIdentifier: 
  sprite: {fileID: 21300000, guid: 330df9fd4ecba9546b3ddc0744d20b42, type: 3}
  price: 1
