%YAML 1.1
%TAG !u! tag:unity3d.com,2011:
--- !u!114 &11400000
MonoBehaviour:
  m_ObjectHideFlags: 0
  m_CorrespondingSourceObject: {fileID: 0}
  m_PrefabInstance: {fileID: 0}
  m_PrefabAsset: {fileID: 0}
  m_GameObject: {fileID: 0}
  m_Enabled: 1
  m_EditorHideFlags: 0
  m_Script: {fileID: 11500000, guid: c7e9391d80600244493676c00fa8101b, type: 3}
  m_Name: FieldSO 2
  m_EditorClassIdentifier: 
  sprite: {fileID: 21300000, guid: 93826c4492a184348b819b6600ded868, type: 3}
  buttonSprite: {fileID: 21300000, guid: f457fccd9d7735e4eb3f2d2685c49742, type: 3}
  price: 1
